{
  "navbar_links": {
    "Welcome": "index.html",
    "About": "about.html",
    "Resume": "resume.html",
    "Projects": "projects.html",
    "Hobbies": "hobbies.html"
  },

  "student": {
      "first_name": "Ian",
      "middle_initial": "",
      "last_name": "Suo"
  },
  
  "banner": "Welcome to %name%'s E-Portfolio",
  
  "footer": "This is a footer",
  
  "banner_image": {
      "src": "images/hobbies/basketballhoop.png",
      "width": "248",
      "height": "226"
  },
  
  "hyper_links": [
      {
          "component_id": "7",
          "links": [
            {
                "starting_index": 0,
                "ending_index": 7,
                "url": "index.html"
            },
            {
                "starting_index": 30,
                "ending_index": 36,
                "url": "index.html"
            }
          ]
      }
  ],
    
  "components": [
        {
            "type": "header",
            "id": "3",
            "content": "This is a header."
        },
        {
            "type": "paragraph",
            "id": "4",
            "content": "This is a paragraph."
        },
        {
            "type": "list",
            "id": "5",
            "content": [
                "List item",
                "List item",
                "List item"
            ]
        },
        {
            "type": "image",
            "id": "6",
            "src": "images/index/ArchesUtah.jpg",
            "alt": "Arches of Utah",
            "width": "600",
            "height": "300",
            "float": "left"
        },
        {
            "type": "paragraph",
            "id": "7",
            "content": "Go home. This is a paragraph. Go home. This is a paragraph.This is a paragraph.This is a paragraph.This is a paragraph.This is a paragraph.This is a paragraph.This is a paragraph.This is a paragraph.This is a paragraph.This is a paragraph.This is a paragraph.This is a paragraph.This is a paragraph.This is a paragraph.This is a paragraph.This is a paragraph.This is a paragraph.This is a paragraph.This is a paragraph.This is a paragraph.This is a paragraph.This is a paragraph.This is a paragraph.This is a paragraph.This is a paragraph.This is a paragraph.This is a paragraph.This is a paragraph.This is a paragraph.This is a paragraph.This is a paragraph.This is a paragraph.This is a paragraph.This is a paragraph.This is a paragraph.This is a paragraph.This is a paragraph.This is a paragraph.This is a paragraph.This is a paragraph.This is a paragraph.This is a paragraph.This is a paragraph.This is a paragraph.This is a paragraph.This is a paragraph.This is a paragraph.This is a paragraph.This is a paragraph.This is a paragraph.This is a paragraph.This is a paragraph.This is a paragraph.This is a paragraph.This is a paragraph.This is a paragraph.This is a paragraph.This is a paragraph.This is a paragraph.This is a paragraph.This is a paragraph.This is a paragraph.This is a paragraph.This is a paragraph.This is a paragraph.This is a paragraph.This is a paragraph.This is a paragraph.This is a paragraph.This is a paragraph.This is a paragraph.This is a paragraph.This is a paragraph.This is a paragraph.This is a paragraph.This is a paragraph.This is a paragraph.This is a paragraph.This is a paragraph.This is a paragraph.This is a paragraph.This is a paragraph.This is a paragraph.This is a paragraph.This is a paragraph.This is a paragraph.This is a paragraph.This is a paragraph.This is a paragraph.This is a paragraph.This is a paragraph.This is a paragraph.This is a paragraph.This is a paragraph.This is a paragraph.This is a paragraph.This is a paragraph.This is a paragraph.This is a paragraph.This is a paragraph.This is a paragraph.This is a paragraph.This is a paragraph.This is a paragraph.This is a paragraph.This is a paragraph.This is a paragraph.This is a paragraph.This is a paragraph.This is a paragraph.This is a paragraph.This is a paragraph.This is a paragraph.This is a paragraph.This is a paragraph.This is a paragraph.This is a paragraph.This is a paragraph.This is a paragraph.This is a paragraph.This is a paragraph.This is a paragraph.This is a paragraph.This is a paragraph.This is a paragraph.This is a paragraph.This is a paragraph.This is a paragraph.This is a paragraph.This is a paragraph."
        },
        {
            "type": "slideshow",
            "title":"Test Slide Show Title",
            "id":"0",
            "slides":[
                {
                    "image_file_name":"BryceCanyonUtah.jpg",
                    "image_path":"images/index/Test Slide Show Title/",
                    "caption":"Grand Canyon"
                },

                {
                    "image_file_name":"OregonTrailNebraska.jpg",
                    "image_path":"images/index/Test Slide Show Title/",
                    "caption":"Trails"
                },
                {
                    "image_file_name":"SaltUtah.jpg",
                    "image_path":"images/index/Test Slide Show Title/",
                    "caption":"Utah"
                },
                {
                    "image_file_name":"CarhengeNebraska.jpg",
                    "image_path":"images/index/Test Slide Show Title/",
                    "caption":"Henge"
                },
                {
                    "image_file_name":"GrosMorneNewfoundland.jpg",
                    "image_path":"images/index/Test Slide Show Title/",
                    "caption":"Newfoundland"
                },
                {
                    "image_file_name":"BadlandsSouthDakota.jpg",
                    "image_path":"images/index/Test Slide Show Title/",
                    "caption":"South Dakota"
                },
                {
                    "image_file_name":"CapeSpearNewfoundland.jpg",
                    "image_path":"images/index/Test Slide Show Title/",
                    "caption":"cape"
                },
                {
                    "image_file_name":"SignalHillNewfoundland.jpg",
                    "image_path":"images/index/Test Slide Show Title/",
                    "caption":"Signal Hill"
                }
            ]
        },
        {
            "type": "slideshow",
            "title": "Test Slide",
            "id": "1",
            "slides": [
                {
                    "image_file_name":"BadlandsSouthDakota.jpg",
                    "image_path":"images/index/Test Slide/",
                    "caption":"test1"
                },
                {
                    "image_file_name":"GrosMorneNewfoundland.jpg",
                    "image_path":"images/index/Test Slide/",
                    "caption":"test2"
                },
                {
                    "image_file_name":"SaltUtah.jpg",
                    "image_path":"images/index/Test Slide/",
                    "caption":"test3"
                }
            ]
        },
        {
            "type": "video",
            "src": "videos/video1.mp4",
            "video_type": "video/mp4",
            "width": "",
            "height": "400"
        }
    ]
}